%YAML 1.1
%TAG !u! tag:unity3d.com,2011:
--- !u!1 &185040
GameObject:
  m_ObjectHideFlags: 1
  m_PrefabParentObject: {fileID: 0}
  m_PrefabInternal: {fileID: 100100000}
  serializedVersion: 4
  m_Component:
  - 4: {fileID: 485040}
  m_Layer: 0
  m_Name: MaleBaseMesh:LeftHandThumb3
  m_TagString: Untagged
  m_Icon: {fileID: 0}
  m_NavMeshLayer: 0
  m_StaticEditorFlags: 0
  m_IsActive: 1
--- !u!1 &185042
GameObject:
  m_ObjectHideFlags: 1
  m_PrefabParentObject: {fileID: 0}
  m_PrefabInternal: {fileID: 100100000}
  serializedVersion: 4
  m_Component:
  - 4: {fileID: 485042}
  m_Layer: 0
  m_Name: MaleBaseMesh:Spine
  m_TagString: Untagged
  m_Icon: {fileID: 0}
  m_NavMeshLayer: 0
  m_StaticEditorFlags: 0
  m_IsActive: 1
--- !u!1 &185044
GameObject:
  m_ObjectHideFlags: 1
  m_PrefabParentObject: {fileID: 0}
  m_PrefabInternal: {fileID: 100100000}
  serializedVersion: 4
  m_Component:
  - 4: {fileID: 485044}
  m_Layer: 0
  m_Name: MaleBaseMesh:RightHandMiddle1
  m_TagString: Untagged
  m_Icon: {fileID: 0}
  m_NavMeshLayer: 0
  m_StaticEditorFlags: 0
  m_IsActive: 1
--- !u!1 &185046
GameObject:
  m_ObjectHideFlags: 1
  m_PrefabParentObject: {fileID: 0}
  m_PrefabInternal: {fileID: 100100000}
  serializedVersion: 4
  m_Component:
  - 4: {fileID: 485046}
  m_Layer: 0
  m_Name: MaleBaseMesh:RightHandIndex3
  m_TagString: Untagged
  m_Icon: {fileID: 0}
  m_NavMeshLayer: 0
  m_StaticEditorFlags: 0
  m_IsActive: 1
--- !u!1 &185048
GameObject:
  m_ObjectHideFlags: 1
  m_PrefabParentObject: {fileID: 0}
  m_PrefabInternal: {fileID: 100100000}
  serializedVersion: 4
  m_Component:
  - 4: {fileID: 485048}
  m_Layer: 0
  m_Name: MaleBaseMesh:RightHandIndex4
  m_TagString: Untagged
  m_Icon: {fileID: 0}
  m_NavMeshLayer: 0
  m_StaticEditorFlags: 0
  m_IsActive: 1
--- !u!1 &185050
GameObject:
  m_ObjectHideFlags: 1
  m_PrefabParentObject: {fileID: 0}
  m_PrefabInternal: {fileID: 100100000}
  serializedVersion: 4
  m_Component:
  - 4: {fileID: 485050}
  m_Layer: 0
  m_Name: MaleBaseMesh:LeftArm
  m_TagString: Untagged
  m_Icon: {fileID: 0}
  m_NavMeshLayer: 0
  m_StaticEditorFlags: 0
  m_IsActive: 1
--- !u!1 &185052
GameObject:
  m_ObjectHideFlags: 1
  m_PrefabParentObject: {fileID: 0}
  m_PrefabInternal: {fileID: 100100000}
  serializedVersion: 4
  m_Component:
  - 4: {fileID: 485052}
  m_Layer: 0
  m_Name: MaleBaseMesh:RightHandIndex1
  m_TagString: Untagged
  m_Icon: {fileID: 0}
  m_NavMeshLayer: 0
  m_StaticEditorFlags: 0
  m_IsActive: 1
--- !u!1 &185054
GameObject:
  m_ObjectHideFlags: 1
  m_PrefabParentObject: {fileID: 0}
  m_PrefabInternal: {fileID: 100100000}
  serializedVersion: 4
  m_Component:
  - 4: {fileID: 485054}
  m_Layer: 0
  m_Name: MaleBaseMesh:RightHandRing3
  m_TagString: Untagged
  m_Icon: {fileID: 0}
  m_NavMeshLayer: 0
  m_StaticEditorFlags: 0
  m_IsActive: 1
--- !u!1 &185056
GameObject:
  m_ObjectHideFlags: 1
  m_PrefabParentObject: {fileID: 0}
  m_PrefabInternal: {fileID: 100100000}
  serializedVersion: 4
  m_Component:
  - 4: {fileID: 485056}
  m_Layer: 0
  m_Name: MaleBaseMesh:LeftHandIndex1
  m_TagString: Untagged
  m_Icon: {fileID: 0}
  m_NavMeshLayer: 0
  m_StaticEditorFlags: 0
  m_IsActive: 1
--- !u!1 &185058
GameObject:
  m_ObjectHideFlags: 1
  m_PrefabParentObject: {fileID: 0}
  m_PrefabInternal: {fileID: 100100000}
  serializedVersion: 4
  m_Component:
  - 4: {fileID: 485058}
  m_Layer: 0
  m_Name: MaleBaseMesh:RightHandPinky4
  m_TagString: Untagged
  m_Icon: {fileID: 0}
  m_NavMeshLayer: 0
  m_StaticEditorFlags: 0
  m_IsActive: 1
--- !u!1 &185060
GameObject:
  m_ObjectHideFlags: 1
  m_PrefabParentObject: {fileID: 0}
  m_PrefabInternal: {fileID: 100100000}
  serializedVersion: 4
  m_Component:
  - 4: {fileID: 485060}
  m_Layer: 0
  m_Name: MaleBaseMesh:Neck
  m_TagString: Untagged
  m_Icon: {fileID: 0}
  m_NavMeshLayer: 0
  m_StaticEditorFlags: 0
  m_IsActive: 1
--- !u!1 &185062
GameObject:
  m_ObjectHideFlags: 1
  m_PrefabParentObject: {fileID: 0}
  m_PrefabInternal: {fileID: 100100000}
  serializedVersion: 4
  m_Component:
  - 4: {fileID: 485062}
  m_Layer: 0
  m_Name: MaleBaseMesh:LeftHandMiddle4
  m_TagString: Untagged
  m_Icon: {fileID: 0}
  m_NavMeshLayer: 0
  m_StaticEditorFlags: 0
  m_IsActive: 1
--- !u!1 &185064
GameObject:
  m_ObjectHideFlags: 1
  m_PrefabParentObject: {fileID: 0}
  m_PrefabInternal: {fileID: 100100000}
  serializedVersion: 4
  m_Component:
  - 4: {fileID: 485064}
  m_Layer: 0
  m_Name: MaleBaseMesh:LeftToe_End
  m_TagString: Untagged
  m_Icon: {fileID: 0}
  m_NavMeshLayer: 0
  m_StaticEditorFlags: 0
  m_IsActive: 1
--- !u!1 &185066
GameObject:
  m_ObjectHideFlags: 1
  m_PrefabParentObject: {fileID: 0}
  m_PrefabInternal: {fileID: 100100000}
  serializedVersion: 4
  m_Component:
  - 4: {fileID: 485066}
  m_Layer: 0
  m_Name: MaleBaseMesh:LeftShoulder
  m_TagString: Untagged
  m_Icon: {fileID: 0}
  m_NavMeshLayer: 0
  m_StaticEditorFlags: 0
  m_IsActive: 1
--- !u!1 &185068
GameObject:
  m_ObjectHideFlags: 1
  m_PrefabParentObject: {fileID: 0}
  m_PrefabInternal: {fileID: 100100000}
  serializedVersion: 4
  m_Component:
  - 4: {fileID: 485068}
  m_Layer: 0
  m_Name: MaleBaseMesh:LeftLeg
  m_TagString: Untagged
  m_Icon: {fileID: 0}
  m_NavMeshLayer: 0
  m_StaticEditorFlags: 0
  m_IsActive: 1
--- !u!1 &185070
GameObject:
  m_ObjectHideFlags: 1
  m_PrefabParentObject: {fileID: 0}
  m_PrefabInternal: {fileID: 100100000}
  serializedVersion: 4
  m_Component:
  - 4: {fileID: 485070}
  m_Layer: 0
  m_Name: MaleBaseMesh:LeftHandPinky3
  m_TagString: Untagged
  m_Icon: {fileID: 0}
  m_NavMeshLayer: 0
  m_StaticEditorFlags: 0
  m_IsActive: 1
--- !u!1 &185072
GameObject:
  m_ObjectHideFlags: 1
  m_PrefabParentObject: {fileID: 0}
  m_PrefabInternal: {fileID: 100100000}
  serializedVersion: 4
  m_Component:
  - 4: {fileID: 485072}
  m_Layer: 0
  m_Name: MaleBaseMesh:RightToe_End
  m_TagString: Untagged
  m_Icon: {fileID: 0}
  m_NavMeshLayer: 0
  m_StaticEditorFlags: 0
  m_IsActive: 1
--- !u!1 &185074
GameObject:
  m_ObjectHideFlags: 1
  m_PrefabParentObject: {fileID: 0}
  m_PrefabInternal: {fileID: 100100000}
  serializedVersion: 4
  m_Component:
  - 4: {fileID: 485074}
  m_Layer: 0
  m_Name: MaleBaseMesh:RightToeBase
  m_TagString: Untagged
  m_Icon: {fileID: 0}
  m_NavMeshLayer: 0
  m_StaticEditorFlags: 0
  m_IsActive: 1
--- !u!1 &185076
GameObject:
  m_ObjectHideFlags: 1
  m_PrefabParentObject: {fileID: 0}
  m_PrefabInternal: {fileID: 100100000}
  serializedVersion: 4
  m_Component:
  - 4: {fileID: 485076}
  m_Layer: 0
  m_Name: MaleBaseMesh:LeftHandPinky4
  m_TagString: Untagged
  m_Icon: {fileID: 0}
  m_NavMeshLayer: 0
  m_StaticEditorFlags: 0
  m_IsActive: 1
--- !u!1 &185078
GameObject:
  m_ObjectHideFlags: 1
  m_PrefabParentObject: {fileID: 0}
  m_PrefabInternal: {fileID: 100100000}
  serializedVersion: 4
  m_Component:
  - 4: {fileID: 485078}
  m_Layer: 0
  m_Name: MaleBaseMesh:LeftHandRing4
  m_TagString: Untagged
  m_Icon: {fileID: 0}
  m_NavMeshLayer: 0
  m_StaticEditorFlags: 0
  m_IsActive: 1
--- !u!1 &185080
GameObject:
  m_ObjectHideFlags: 1
  m_PrefabParentObject: {fileID: 0}
  m_PrefabInternal: {fileID: 100100000}
  serializedVersion: 4
  m_Component:
  - 4: {fileID: 485080}
  m_Layer: 0
  m_Name: MaleBaseMesh:LeftToeBase
  m_TagString: Untagged
  m_Icon: {fileID: 0}
  m_NavMeshLayer: 0
  m_StaticEditorFlags: 0
  m_IsActive: 1
--- !u!1 &185082
GameObject:
  m_ObjectHideFlags: 1
  m_PrefabParentObject: {fileID: 0}
  m_PrefabInternal: {fileID: 100100000}
  serializedVersion: 4
  m_Component:
  - 4: {fileID: 485082}
  m_Layer: 0
  m_Name: MaleBaseMesh:RightHandIndex2
  m_TagString: Untagged
  m_Icon: {fileID: 0}
  m_NavMeshLayer: 0
  m_StaticEditorFlags: 0
  m_IsActive: 1
--- !u!1 &185084
GameObject:
  m_ObjectHideFlags: 1
  m_PrefabParentObject: {fileID: 0}
  m_PrefabInternal: {fileID: 100100000}
  serializedVersion: 4
  m_Component:
  - 4: {fileID: 485084}
  m_Layer: 0
  m_Name: MaleBaseMesh:RightUpLeg
  m_TagString: Untagged
  m_Icon: {fileID: 0}
  m_NavMeshLayer: 0
  m_StaticEditorFlags: 0
  m_IsActive: 1
--- !u!1 &185086
GameObject:
  m_ObjectHideFlags: 0
  m_PrefabParentObject: {fileID: 0}
  m_PrefabInternal: {fileID: 100100000}
  serializedVersion: 4
  m_Component:
  - 4: {fileID: 485086}
  m_Layer: 0
  m_Name: MaleBaseMesh:Hips
  m_TagString: Untagged
  m_Icon: {fileID: 0}
  m_NavMeshLayer: 0
  m_StaticEditorFlags: 0
  m_IsActive: 1
--- !u!1 &185088
GameObject:
  m_ObjectHideFlags: 1
  m_PrefabParentObject: {fileID: 0}
  m_PrefabInternal: {fileID: 100100000}
  serializedVersion: 4
  m_Component:
  - 4: {fileID: 485088}
  m_Layer: 0
  m_Name: MaleBaseMesh:RightHandMiddle4
  m_TagString: Untagged
  m_Icon: {fileID: 0}
  m_NavMeshLayer: 0
  m_StaticEditorFlags: 0
  m_IsActive: 1
--- !u!1 &185090
GameObject:
  m_ObjectHideFlags: 1
  m_PrefabParentObject: {fileID: 0}
  m_PrefabInternal: {fileID: 100100000}
  serializedVersion: 4
  m_Component:
  - 4: {fileID: 485090}
  m_Layer: 0
  m_Name: MaleBaseMesh:RightHandThumb3
  m_TagString: Untagged
  m_Icon: {fileID: 0}
  m_NavMeshLayer: 0
  m_StaticEditorFlags: 0
  m_IsActive: 1
--- !u!1 &185092
GameObject:
  m_ObjectHideFlags: 1
  m_PrefabParentObject: {fileID: 0}
  m_PrefabInternal: {fileID: 100100000}
  serializedVersion: 4
  m_Component:
  - 4: {fileID: 485092}
  m_Layer: 0
  m_Name: MaleBaseMesh:Head
  m_TagString: Untagged
  m_Icon: {fileID: 0}
  m_NavMeshLayer: 0
  m_StaticEditorFlags: 0
  m_IsActive: 1
--- !u!1 &185094
GameObject:
  m_ObjectHideFlags: 1
  m_PrefabParentObject: {fileID: 0}
  m_PrefabInternal: {fileID: 100100000}
  serializedVersion: 4
  m_Component:
  - 4: {fileID: 485094}
  m_Layer: 0
  m_Name: MaleBaseMesh:LeftHandMiddle3
  m_TagString: Untagged
  m_Icon: {fileID: 0}
  m_NavMeshLayer: 0
  m_StaticEditorFlags: 0
  m_IsActive: 1
--- !u!1 &185096
GameObject:
  m_ObjectHideFlags: 0
  m_PrefabParentObject: {fileID: 0}
  m_PrefabInternal: {fileID: 100100000}
  serializedVersion: 4
  m_Component:
  - 4: {fileID: 485096}
  - 95: {fileID: 9585172}
  - 136: {fileID: 13685172}
  - 54: {fileID: 5485172}
  - 114: {fileID: 11441396}
  m_Layer: 0
  m_Name: FlyingCharacter
  m_TagString: Player
  m_Icon: {fileID: 0}
  m_NavMeshLayer: 0
  m_StaticEditorFlags: 0
  m_IsActive: 1
--- !u!1 &185098
GameObject:
  m_ObjectHideFlags: 1
  m_PrefabParentObject: {fileID: 0}
  m_PrefabInternal: {fileID: 100100000}
  serializedVersion: 4
  m_Component:
  - 4: {fileID: 485098}
  m_Layer: 0
  m_Name: MaleBaseMesh:RightHandThumb1
  m_TagString: Untagged
  m_Icon: {fileID: 0}
  m_NavMeshLayer: 0
  m_StaticEditorFlags: 0
  m_IsActive: 1
--- !u!1 &185100
GameObject:
  m_ObjectHideFlags: 1
  m_PrefabParentObject: {fileID: 0}
  m_PrefabInternal: {fileID: 100100000}
  serializedVersion: 4
  m_Component:
  - 4: {fileID: 485100}
  m_Layer: 0
  m_Name: MaleBaseMesh:LeftHandThumb2
  m_TagString: Untagged
  m_Icon: {fileID: 0}
  m_NavMeshLayer: 0
  m_StaticEditorFlags: 0
  m_IsActive: 1
--- !u!1 &185102
GameObject:
  m_ObjectHideFlags: 1
  m_PrefabParentObject: {fileID: 0}
  m_PrefabInternal: {fileID: 100100000}
  serializedVersion: 4
  m_Component:
  - 4: {fileID: 485102}
  m_Layer: 0
  m_Name: MaleBaseMesh:LeftHandRing2
  m_TagString: Untagged
  m_Icon: {fileID: 0}
  m_NavMeshLayer: 0
  m_StaticEditorFlags: 0
  m_IsActive: 1
--- !u!1 &185104
GameObject:
  m_ObjectHideFlags: 1
  m_PrefabParentObject: {fileID: 0}
  m_PrefabInternal: {fileID: 100100000}
  serializedVersion: 4
  m_Component:
  - 4: {fileID: 485104}
  m_Layer: 0
  m_Name: MaleBaseMesh:LeftUpLeg
  m_TagString: Untagged
  m_Icon: {fileID: 0}
  m_NavMeshLayer: 0
  m_StaticEditorFlags: 0
  m_IsActive: 1
--- !u!1 &185106
GameObject:
  m_ObjectHideFlags: 1
  m_PrefabParentObject: {fileID: 0}
  m_PrefabInternal: {fileID: 100100000}
  serializedVersion: 4
  m_Component:
  - 4: {fileID: 485106}
  m_Layer: 0
  m_Name: MaleBaseMesh:RightHandRing1
  m_TagString: Untagged
  m_Icon: {fileID: 0}
  m_NavMeshLayer: 0
  m_StaticEditorFlags: 0
  m_IsActive: 1
--- !u!1 &185108
GameObject:
  m_ObjectHideFlags: 1
  m_PrefabParentObject: {fileID: 0}
  m_PrefabInternal: {fileID: 100100000}
  serializedVersion: 4
  m_Component:
  - 4: {fileID: 485108}
  m_Layer: 0
  m_Name: MaleBaseMesh:RightFoot
  m_TagString: Untagged
  m_Icon: {fileID: 0}
  m_NavMeshLayer: 0
  m_StaticEditorFlags: 0
  m_IsActive: 1
--- !u!1 &185110
GameObject:
  m_ObjectHideFlags: 1
  m_PrefabParentObject: {fileID: 0}
  m_PrefabInternal: {fileID: 100100000}
  serializedVersion: 4
  m_Component:
  - 4: {fileID: 485110}
  m_Layer: 0
  m_Name: MaleBaseMesh:Spine1
  m_TagString: Untagged
  m_Icon: {fileID: 0}
  m_NavMeshLayer: 0
  m_StaticEditorFlags: 0
  m_IsActive: 1
--- !u!1 &185112
GameObject:
  m_ObjectHideFlags: 1
  m_PrefabParentObject: {fileID: 0}
  m_PrefabInternal: {fileID: 100100000}
  serializedVersion: 4
  m_Component:
  - 4: {fileID: 485112}
  m_Layer: 0
  m_Name: MaleBaseMesh:Spine2
  m_TagString: Untagged
  m_Icon: {fileID: 0}
  m_NavMeshLayer: 0
  m_StaticEditorFlags: 0
  m_IsActive: 1
--- !u!1 &185114
GameObject:
  m_ObjectHideFlags: 1
  m_PrefabParentObject: {fileID: 0}
  m_PrefabInternal: {fileID: 100100000}
  serializedVersion: 4
  m_Component:
  - 4: {fileID: 485114}
  m_Layer: 0
  m_Name: MaleBaseMesh:HeadTop_End
  m_TagString: Untagged
  m_Icon: {fileID: 0}
  m_NavMeshLayer: 0
  m_StaticEditorFlags: 0
  m_IsActive: 1
--- !u!1 &185116
GameObject:
  m_ObjectHideFlags: 1
  m_PrefabParentObject: {fileID: 0}
  m_PrefabInternal: {fileID: 100100000}
  serializedVersion: 4
  m_Component:
  - 4: {fileID: 485116}
  m_Layer: 0
  m_Name: MaleBaseMesh:RightHandPinky3
  m_TagString: Untagged
  m_Icon: {fileID: 0}
  m_NavMeshLayer: 0
  m_StaticEditorFlags: 0
  m_IsActive: 1
--- !u!1 &185118
GameObject:
  m_ObjectHideFlags: 1
  m_PrefabParentObject: {fileID: 0}
  m_PrefabInternal: {fileID: 100100000}
  serializedVersion: 4
  m_Component:
  - 4: {fileID: 485118}
  m_Layer: 0
  m_Name: MaleBaseMesh:RightHandRing2
  m_TagString: Untagged
  m_Icon: {fileID: 0}
  m_NavMeshLayer: 0
  m_StaticEditorFlags: 0
  m_IsActive: 1
--- !u!1 &185120
GameObject:
  m_ObjectHideFlags: 1
  m_PrefabParentObject: {fileID: 0}
  m_PrefabInternal: {fileID: 100100000}
  serializedVersion: 4
  m_Component:
  - 4: {fileID: 485120}
  m_Layer: 0
  m_Name: MaleBaseMesh:RightForeArm
  m_TagString: Untagged
  m_Icon: {fileID: 0}
  m_NavMeshLayer: 0
  m_StaticEditorFlags: 0
  m_IsActive: 1
--- !u!1 &185122
GameObject:
  m_ObjectHideFlags: 1
  m_PrefabParentObject: {fileID: 0}
  m_PrefabInternal: {fileID: 100100000}
  serializedVersion: 4
  m_Component:
  - 4: {fileID: 485122}
  m_Layer: 0
  m_Name: MaleBaseMesh:LeftHandIndex4
  m_TagString: Untagged
  m_Icon: {fileID: 0}
  m_NavMeshLayer: 0
  m_StaticEditorFlags: 0
  m_IsActive: 1
--- !u!1 &185124
GameObject:
  m_ObjectHideFlags: 1
  m_PrefabParentObject: {fileID: 0}
  m_PrefabInternal: {fileID: 100100000}
  serializedVersion: 4
  m_Component:
  - 4: {fileID: 485124}
  m_Layer: 0
  m_Name: MaleBaseMesh:LeftHandThumb4
  m_TagString: Untagged
  m_Icon: {fileID: 0}
  m_NavMeshLayer: 0
  m_StaticEditorFlags: 0
  m_IsActive: 1
--- !u!1 &185126
GameObject:
  m_ObjectHideFlags: 1
  m_PrefabParentObject: {fileID: 0}
  m_PrefabInternal: {fileID: 100100000}
  serializedVersion: 4
  m_Component:
  - 4: {fileID: 485126}
  m_Layer: 0
  m_Name: MaleBaseMesh:LeftHandThumb1
  m_TagString: Untagged
  m_Icon: {fileID: 0}
  m_NavMeshLayer: 0
  m_StaticEditorFlags: 0
  m_IsActive: 1
--- !u!1 &185128
GameObject:
  m_ObjectHideFlags: 1
  m_PrefabParentObject: {fileID: 0}
  m_PrefabInternal: {fileID: 100100000}
  serializedVersion: 4
  m_Component:
  - 4: {fileID: 485128}
  m_Layer: 0
  m_Name: MaleBaseMesh:LeftHandMiddle2
  m_TagString: Untagged
  m_Icon: {fileID: 0}
  m_NavMeshLayer: 0
  m_StaticEditorFlags: 0
  m_IsActive: 1
--- !u!1 &185130
GameObject:
  m_ObjectHideFlags: 1
  m_PrefabParentObject: {fileID: 0}
  m_PrefabInternal: {fileID: 100100000}
  serializedVersion: 4
  m_Component:
  - 4: {fileID: 485130}
  m_Layer: 0
  m_Name: MaleBaseMesh:RightHandPinky2
  m_TagString: Untagged
  m_Icon: {fileID: 0}
  m_NavMeshLayer: 0
  m_StaticEditorFlags: 0
  m_IsActive: 1
--- !u!1 &185132
GameObject:
  m_ObjectHideFlags: 1
  m_PrefabParentObject: {fileID: 0}
  m_PrefabInternal: {fileID: 100100000}
  serializedVersion: 4
  m_Component:
  - 4: {fileID: 485132}
  m_Layer: 0
  m_Name: MaleBaseMesh:LeftHandIndex3
  m_TagString: Untagged
  m_Icon: {fileID: 0}
  m_NavMeshLayer: 0
  m_StaticEditorFlags: 0
  m_IsActive: 1
--- !u!1 &185134
GameObject:
  m_ObjectHideFlags: 1
  m_PrefabParentObject: {fileID: 0}
  m_PrefabInternal: {fileID: 100100000}
  serializedVersion: 4
  m_Component:
  - 4: {fileID: 485134}
  m_Layer: 0
  m_Name: MaleBaseMesh:RightHandRing4
  m_TagString: Untagged
  m_Icon: {fileID: 0}
  m_NavMeshLayer: 0
  m_StaticEditorFlags: 0
  m_IsActive: 1
--- !u!1 &185136
GameObject:
  m_ObjectHideFlags: 1
  m_PrefabParentObject: {fileID: 0}
  m_PrefabInternal: {fileID: 100100000}
  serializedVersion: 4
  m_Component:
  - 4: {fileID: 485136}
  m_Layer: 0
  m_Name: MaleBaseMesh:LeftForeArm
  m_TagString: Untagged
  m_Icon: {fileID: 0}
  m_NavMeshLayer: 0
  m_StaticEditorFlags: 0
  m_IsActive: 1
--- !u!1 &185138
GameObject:
  m_ObjectHideFlags: 1
  m_PrefabParentObject: {fileID: 0}
  m_PrefabInternal: {fileID: 100100000}
  serializedVersion: 4
  m_Component:
  - 4: {fileID: 485138}
  m_Layer: 0
  m_Name: MaleBaseMesh:RightHand
  m_TagString: Untagged
  m_Icon: {fileID: 0}
  m_NavMeshLayer: 0
  m_StaticEditorFlags: 0
  m_IsActive: 1
--- !u!1 &185140
GameObject:
  m_ObjectHideFlags: 1
  m_PrefabParentObject: {fileID: 0}
  m_PrefabInternal: {fileID: 100100000}
  serializedVersion: 4
  m_Component:
  - 4: {fileID: 485140}
  m_Layer: 0
  m_Name: MaleBaseMesh:LeftHandRing1
  m_TagString: Untagged
  m_Icon: {fileID: 0}
  m_NavMeshLayer: 0
  m_StaticEditorFlags: 0
  m_IsActive: 1
--- !u!1 &185142
GameObject:
  m_ObjectHideFlags: 1
  m_PrefabParentObject: {fileID: 0}
  m_PrefabInternal: {fileID: 100100000}
  serializedVersion: 4
  m_Component:
  - 4: {fileID: 485142}
  m_Layer: 0
  m_Name: MaleBaseMesh:RightShoulder
  m_TagString: Untagged
  m_Icon: {fileID: 0}
  m_NavMeshLayer: 0
  m_StaticEditorFlags: 0
  m_IsActive: 1
--- !u!1 &185144
GameObject:
  m_ObjectHideFlags: 1
  m_PrefabParentObject: {fileID: 0}
  m_PrefabInternal: {fileID: 100100000}
  serializedVersion: 4
  m_Component:
  - 4: {fileID: 485144}
  m_Layer: 0
  m_Name: MaleBaseMesh:LeftHandPinky2
  m_TagString: Untagged
  m_Icon: {fileID: 0}
  m_NavMeshLayer: 0
  m_StaticEditorFlags: 0
  m_IsActive: 1
--- !u!1 &185146
GameObject:
  m_ObjectHideFlags: 1
  m_PrefabParentObject: {fileID: 0}
  m_PrefabInternal: {fileID: 100100000}
  serializedVersion: 4
  m_Component:
  - 4: {fileID: 485146}
  m_Layer: 0
  m_Name: MaleBaseMesh:RightHandMiddle3
  m_TagString: Untagged
  m_Icon: {fileID: 0}
  m_NavMeshLayer: 0
  m_StaticEditorFlags: 0
  m_IsActive: 1
--- !u!1 &185148
GameObject:
  m_ObjectHideFlags: 1
  m_PrefabParentObject: {fileID: 0}
  m_PrefabInternal: {fileID: 100100000}
  serializedVersion: 4
  m_Component:
  - 4: {fileID: 485148}
  m_Layer: 0
  m_Name: MaleBaseMesh:RightHandMiddle2
  m_TagString: Untagged
  m_Icon: {fileID: 0}
  m_NavMeshLayer: 0
  m_StaticEditorFlags: 0
  m_IsActive: 1
--- !u!1 &185150
GameObject:
  m_ObjectHideFlags: 1
  m_PrefabParentObject: {fileID: 0}
  m_PrefabInternal: {fileID: 100100000}
  serializedVersion: 4
  m_Component:
  - 4: {fileID: 485150}
  m_Layer: 0
  m_Name: MaleBaseMesh:LeftHandPinky1
  m_TagString: Untagged
  m_Icon: {fileID: 0}
  m_NavMeshLayer: 0
  m_StaticEditorFlags: 0
  m_IsActive: 1
--- !u!1 &185152
GameObject:
  m_ObjectHideFlags: 1
  m_PrefabParentObject: {fileID: 0}
  m_PrefabInternal: {fileID: 100100000}
  serializedVersion: 4
  m_Component:
  - 4: {fileID: 485152}
  m_Layer: 0
  m_Name: MaleBaseMesh:RightHandPinky1
  m_TagString: Untagged
  m_Icon: {fileID: 0}
  m_NavMeshLayer: 0
  m_StaticEditorFlags: 0
  m_IsActive: 1
--- !u!1 &185154
GameObject:
  m_ObjectHideFlags: 1
  m_PrefabParentObject: {fileID: 0}
  m_PrefabInternal: {fileID: 100100000}
  serializedVersion: 4
  m_Component:
  - 4: {fileID: 485154}
  m_Layer: 0
  m_Name: MaleBaseMesh:RightHandThumb4
  m_TagString: Untagged
  m_Icon: {fileID: 0}
  m_NavMeshLayer: 0
  m_StaticEditorFlags: 0
  m_IsActive: 1
--- !u!1 &185156
GameObject:
  m_ObjectHideFlags: 0
  m_PrefabParentObject: {fileID: 0}
  m_PrefabInternal: {fileID: 100100000}
  serializedVersion: 4
  m_Component:
  - 4: {fileID: 485156}
  - 137: {fileID: 13785172}
  m_Layer: 0
  m_Name: male_Hi
  m_TagString: Untagged
  m_Icon: {fileID: 0}
  m_NavMeshLayer: 0
  m_StaticEditorFlags: 0
  m_IsActive: 1
--- !u!1 &185158
GameObject:
  m_ObjectHideFlags: 1
  m_PrefabParentObject: {fileID: 0}
  m_PrefabInternal: {fileID: 100100000}
  serializedVersion: 4
  m_Component:
  - 4: {fileID: 485158}
  m_Layer: 0
  m_Name: MaleBaseMesh:LeftHandRing3
  m_TagString: Untagged
  m_Icon: {fileID: 0}
  m_NavMeshLayer: 0
  m_StaticEditorFlags: 0
  m_IsActive: 1
--- !u!1 &185160
GameObject:
  m_ObjectHideFlags: 1
  m_PrefabParentObject: {fileID: 0}
  m_PrefabInternal: {fileID: 100100000}
  serializedVersion: 4
  m_Component:
  - 4: {fileID: 485160}
  m_Layer: 0
  m_Name: MaleBaseMesh:RightArm
  m_TagString: Untagged
  m_Icon: {fileID: 0}
  m_NavMeshLayer: 0
  m_StaticEditorFlags: 0
  m_IsActive: 1
--- !u!1 &185162
GameObject:
  m_ObjectHideFlags: 1
  m_PrefabParentObject: {fileID: 0}
  m_PrefabInternal: {fileID: 100100000}
  serializedVersion: 4
  m_Component:
  - 4: {fileID: 485162}
  m_Layer: 0
  m_Name: MaleBaseMesh:RightHandThumb2
  m_TagString: Untagged
  m_Icon: {fileID: 0}
  m_NavMeshLayer: 0
  m_StaticEditorFlags: 0
  m_IsActive: 1
--- !u!1 &185164
GameObject:
  m_ObjectHideFlags: 1
  m_PrefabParentObject: {fileID: 0}
  m_PrefabInternal: {fileID: 100100000}
  serializedVersion: 4
  m_Component:
  - 4: {fileID: 485164}
  m_Layer: 0
  m_Name: MaleBaseMesh:LeftHandMiddle1
  m_TagString: Untagged
  m_Icon: {fileID: 0}
  m_NavMeshLayer: 0
  m_StaticEditorFlags: 0
  m_IsActive: 1
--- !u!1 &185166
GameObject:
  m_ObjectHideFlags: 1
  m_PrefabParentObject: {fileID: 0}
  m_PrefabInternal: {fileID: 100100000}
  serializedVersion: 4
  m_Component:
  - 4: {fileID: 485166}
  m_Layer: 0
  m_Name: MaleBaseMesh:RightLeg
  m_TagString: Untagged
  m_Icon: {fileID: 0}
  m_NavMeshLayer: 0
  m_StaticEditorFlags: 0
  m_IsActive: 1
--- !u!1 &185168
GameObject:
  m_ObjectHideFlags: 1
  m_PrefabParentObject: {fileID: 0}
  m_PrefabInternal: {fileID: 100100000}
  serializedVersion: 4
  m_Component:
  - 4: {fileID: 485168}
  m_Layer: 0
  m_Name: MaleBaseMesh:LeftFoot
  m_TagString: Untagged
  m_Icon: {fileID: 0}
  m_NavMeshLayer: 0
  m_StaticEditorFlags: 0
  m_IsActive: 1
--- !u!1 &185170
GameObject:
  m_ObjectHideFlags: 1
  m_PrefabParentObject: {fileID: 0}
  m_PrefabInternal: {fileID: 100100000}
  serializedVersion: 4
  m_Component:
  - 4: {fileID: 485170}
  m_Layer: 0
  m_Name: MaleBaseMesh:LeftHandIndex2
  m_TagString: Untagged
  m_Icon: {fileID: 0}
  m_NavMeshLayer: 0
  m_StaticEditorFlags: 0
  m_IsActive: 1
--- !u!1 &185172
GameObject:
  m_ObjectHideFlags: 1
  m_PrefabParentObject: {fileID: 0}
  m_PrefabInternal: {fileID: 100100000}
  serializedVersion: 4
  m_Component:
  - 4: {fileID: 485172}
  m_Layer: 0
  m_Name: MaleBaseMesh:LeftHand
  m_TagString: Untagged
  m_Icon: {fileID: 0}
  m_NavMeshLayer: 0
  m_StaticEditorFlags: 0
  m_IsActive: 1
--- !u!4 &485040
Transform:
  m_ObjectHideFlags: 1
  m_PrefabParentObject: {fileID: 0}
  m_PrefabInternal: {fileID: 100100000}
  m_GameObject: {fileID: 185040}
  m_LocalRotation: {x: -0.01595218, y: -0.023435961, z: 0.021490157, w: 0.99936706}
  m_LocalPosition: {x: -0.027660808, y: -2.842171e-16, z: 0}
  m_LocalScale: {x: 1, y: 1, z: 1}
  m_Children:
  - {fileID: 485124}
  m_Father: {fileID: 485100}
  m_RootOrder: 0
--- !u!4 &485042
Transform:
  m_ObjectHideFlags: 1
  m_PrefabParentObject: {fileID: 0}
  m_PrefabInternal: {fileID: 100100000}
  m_GameObject: {fileID: 185042}
  m_LocalRotation: {x: -0.00000004029931, y: -0.00000017463836, z: -0.0016361101,
    w: 0.9999987}
  m_LocalPosition: {x: -0.09469104, y: -3.1086245e-17, z: -3.8302694e-17}
  m_LocalScale: {x: 1, y: 1, z: 1}
  m_Children:
  - {fileID: 485110}
  m_Father: {fileID: 485086}
  m_RootOrder: 2
--- !u!4 &485044
Transform:
  m_ObjectHideFlags: 1
  m_PrefabParentObject: {fileID: 0}
  m_PrefabInternal: {fileID: 100100000}
  m_GameObject: {fileID: 185044}
  m_LocalRotation: {x: -0.012574338, y: -0.007294818, z: -0.006708264, w: 0.99987185}
  m_LocalPosition: {x: -0.10926422, y: 0.005151474, z: -0.012594579}
  m_LocalScale: {x: 1, y: 1, z: 1}
  m_Children:
  - {fileID: 485148}
  m_Father: {fileID: 485138}
  m_RootOrder: 1
--- !u!4 &485046
Transform:
  m_ObjectHideFlags: 1
  m_PrefabParentObject: {fileID: 0}
  m_PrefabInternal: {fileID: 100100000}
  m_GameObject: {fileID: 185046}
  m_LocalRotation: {x: 0.00017699249, y: 0.003633699, z: 0.022071637, w: 0.9997498}
  m_LocalPosition: {x: -0.02766384, y: 0, z: 8.881784e-18}
  m_LocalScale: {x: 1, y: 1, z: 1}
  m_Children:
  - {fileID: 485048}
  m_Father: {fileID: 485082}
  m_RootOrder: 0
--- !u!4 &485048
Transform:
  m_ObjectHideFlags: 1
  m_PrefabParentObject: {fileID: 0}
  m_PrefabInternal: {fileID: 100100000}
  m_GameObject: {fileID: 185048}
  m_LocalRotation: {x: 0, y: -0, z: -0, w: 1}
  m_LocalPosition: {x: -0.025443517, y: 0, z: 0}
  m_LocalScale: {x: 1, y: 1, z: 1}
  m_Children: []
  m_Father: {fileID: 485046}
  m_RootOrder: 0
--- !u!4 &485050
Transform:
  m_ObjectHideFlags: 1
  m_PrefabParentObject: {fileID: 0}
  m_PrefabInternal: {fileID: 100100000}
  m_GameObject: {fileID: 185050}
  m_LocalRotation: {x: 0.00042362805, y: 0.0047219936, z: 0.012598535, w: 0.9999094}
  m_LocalPosition: {x: -0.12384196, y: 2.842171e-16, z: -4.440892e-18}
  m_LocalScale: {x: 1, y: 1, z: 1}
  m_Children:
  - {fileID: 485136}
  m_Father: {fileID: 485066}
  m_RootOrder: 0
--- !u!4 &485052
Transform:
  m_ObjectHideFlags: 1
  m_PrefabParentObject: {fileID: 0}
  m_PrefabInternal: {fileID: 100100000}
  m_GameObject: {fileID: 185052}
  m_LocalRotation: {x: -0.022605544, y: -0.040237308, z: -0.029099608, w: 0.9985105}
  m_LocalPosition: {x: -0.10737077, y: 0.0016331875, z: -0.036185768}
  m_LocalScale: {x: 1, y: 1, z: 1}
  m_Children:
  - {fileID: 485082}
  m_Father: {fileID: 485138}
  m_RootOrder: 0
--- !u!4 &485054
Transform:
  m_ObjectHideFlags: 1
  m_PrefabParentObject: {fileID: 0}
  m_PrefabInternal: {fileID: 100100000}
  m_GameObject: {fileID: 185054}
  m_LocalRotation: {x: -0.00006684077, y: 0.0004188228, z: 0.020416034, w: 0.9997915}
  m_LocalPosition: {x: -0.023403198, y: 2.842171e-16, z: 1.11022296e-17}
  m_LocalScale: {x: 1, y: 1, z: 1}
  m_Children:
  - {fileID: 485134}
  m_Father: {fileID: 485118}
  m_RootOrder: 0
--- !u!4 &485056
Transform:
  m_ObjectHideFlags: 1
  m_PrefabParentObject: {fileID: 0}
  m_PrefabInternal: {fileID: 100100000}
  m_GameObject: {fileID: 185056}
  m_LocalRotation: {x: 0.022600077, y: 0.04023736, z: -0.02909953, w: 0.9985106}
  m_LocalPosition: {x: -0.10737077, y: 0.0016333184, z: 0.036185764}
  m_LocalScale: {x: 1, y: 1, z: 1}
  m_Children:
  - {fileID: 485170}
  m_Father: {fileID: 485172}
  m_RootOrder: 0
--- !u!4 &485058
Transform:
  m_ObjectHideFlags: 1
  m_PrefabParentObject: {fileID: 0}
  m_PrefabInternal: {fileID: 100100000}
  m_GameObject: {fileID: 185058}
  m_LocalRotation: {x: 0, y: -0, z: -0, w: 1}
  m_LocalPosition: {x: -0.020845681, y: -5.684342e-16, z: -1.7763568e-17}
  m_LocalScale: {x: 1, y: 1, z: 1}
  m_Children: []
  m_Father: {fileID: 485116}
  m_RootOrder: 0
--- !u!4 &485060
Transform:
  m_ObjectHideFlags: 1
  m_PrefabParentObject: {fileID: 0}
  m_PrefabInternal: {fileID: 100100000}
  m_GameObject: {fileID: 185060}
  m_LocalRotation: {x: -0.028601967, y: 0.0017838266, z: 0.11354802, w: 0.9931191}
  m_LocalPosition: {x: -0.13370408, y: 1.9539925e-16, z: -2.1094237e-17}
  m_LocalScale: {x: 1, y: 1, z: 1}
  m_Children:
  - {fileID: 485092}
  m_Father: {fileID: 485112}
  m_RootOrder: 1
--- !u!4 &485062
Transform:
  m_ObjectHideFlags: 1
  m_PrefabParentObject: {fileID: 0}
  m_PrefabInternal: {fileID: 100100000}
  m_GameObject: {fileID: 185062}
  m_LocalRotation: {x: 0, y: -0, z: -0, w: 1}
  m_LocalPosition: {x: -0.028103577, y: 0, z: -1.7763568e-17}
  m_LocalScale: {x: 1, y: 1, z: 1}
  m_Children: []
  m_Father: {fileID: 485094}
  m_RootOrder: 0
--- !u!4 &485064
Transform:
  m_ObjectHideFlags: 1
  m_PrefabParentObject: {fileID: 0}
  m_PrefabInternal: {fileID: 100100000}
  m_GameObject: {fileID: 185064}
  m_LocalRotation: {x: 0, y: -0, z: -0, w: 1}
  m_LocalPosition: {x: -0.059487265, y: 3.3893567e-17, z: 0}
  m_LocalScale: {x: 1, y: 1, z: 1}
  m_Children: []
  m_Father: {fileID: 485080}
  m_RootOrder: 0
--- !u!4 &485066
Transform:
  m_ObjectHideFlags: 1
  m_PrefabParentObject: {fileID: 0}
  m_PrefabInternal: {fileID: 100100000}
  m_GameObject: {fileID: 185066}
  m_LocalRotation: {x: 0.47926772, y: -0.49159512, z: 0.54606885, w: 0.4800474}
  m_LocalPosition: {x: -0.091702364, y: -0.004228856, z: -0.06147276}
  m_LocalScale: {x: 1, y: 1, z: 1}
  m_Children:
  - {fileID: 485050}
  m_Father: {fileID: 485112}
  m_RootOrder: 0
--- !u!4 &485068
Transform:
  m_ObjectHideFlags: 1
  m_PrefabParentObject: {fileID: 0}
  m_PrefabInternal: {fileID: 100100000}
  m_GameObject: {fileID: 185068}
  m_LocalRotation: {x: 0.0063080858, y: -0.005114581, z: 0.046046697, w: 0.9989063}
  m_LocalPosition: {x: -0.40885338, y: 1.3322676e-17, z: 1.7763568e-17}
  m_LocalScale: {x: 1, y: 1, z: 1}
  m_Children:
  - {fileID: 485168}
  m_Father: {fileID: 485104}
  m_RootOrder: 0
--- !u!4 &485070
Transform:
  m_ObjectHideFlags: 1
  m_PrefabParentObject: {fileID: 0}
  m_PrefabInternal: {fileID: 100100000}
  m_GameObject: {fileID: 185070}
  m_LocalRotation: {x: 0.00009125541, y: 0.0047687213, z: 0.016477108, w: 0.9998529}
  m_LocalPosition: {x: -0.021254849, y: 0, z: 3.5527136e-17}
  m_LocalScale: {x: 1, y: 1, z: 1}
  m_Children:
  - {fileID: 485076}
  m_Father: {fileID: 485144}
  m_RootOrder: 0
--- !u!4 &485072
Transform:
  m_ObjectHideFlags: 1
  m_PrefabParentObject: {fileID: 0}
  m_PrefabInternal: {fileID: 100100000}
  m_GameObject: {fileID: 185072}
  m_LocalRotation: {x: 0, y: -0, z: -0, w: 1}
  m_LocalPosition: {x: -0.059438985, y: -0.00022609222, z: 0.0023855728}
  m_LocalScale: {x: 1, y: 1, z: 1}
  m_Children: []
  m_Father: {fileID: 485074}
  m_RootOrder: 0
--- !u!4 &485074
Transform:
  m_ObjectHideFlags: 1
  m_PrefabParentObject: {fileID: 0}
  m_PrefabInternal: {fileID: 100100000}
  m_GameObject: {fileID: 185074}
  m_LocalRotation: {x: -0.008587778, y: -0.025409266, z: -0.3236698, w: 0.9457899}
  m_LocalPosition: {x: -0.1715372, y: 7.105427e-17, z: -1.7763568e-17}
  m_LocalScale: {x: 1, y: 1, z: 1}
  m_Children:
  - {fileID: 485072}
  m_Father: {fileID: 485108}
  m_RootOrder: 0
--- !u!4 &485076
Transform:
  m_ObjectHideFlags: 1
  m_PrefabParentObject: {fileID: 0}
  m_PrefabInternal: {fileID: 100100000}
  m_GameObject: {fileID: 185076}
  m_LocalRotation: {x: 0, y: -0, z: -0, w: 1}
  m_LocalPosition: {x: -0.020845681, y: 0, z: 0}
  m_LocalScale: {x: 1, y: 1, z: 1}
  m_Children: []
  m_Father: {fileID: 485070}
  m_RootOrder: 0
--- !u!4 &485078
Transform:
  m_ObjectHideFlags: 1
  m_PrefabParentObject: {fileID: 0}
  m_PrefabInternal: {fileID: 100100000}
  m_GameObject: {fileID: 185078}
  m_LocalRotation: {x: 0, y: -0, z: -0, w: 1}
  m_LocalPosition: {x: -0.02391584, y: -2.842171e-16, z: -1.9984014e-17}
  m_LocalScale: {x: 1, y: 1, z: 1}
  m_Children: []
  m_Father: {fileID: 485158}
  m_RootOrder: 0
--- !u!4 &485080
Transform:
  m_ObjectHideFlags: 1
  m_PrefabParentObject: {fileID: 0}
  m_PrefabInternal: {fileID: 100100000}
  m_GameObject: {fileID: 185080}
  m_LocalRotation: {x: 0.0021791693, y: 0.0064075263, z: -0.32197893, w: 0.9467227}
  m_LocalPosition: {x: -0.1715372, y: 7.105427e-17, z: 0}
  m_LocalScale: {x: 1, y: 1, z: 1}
  m_Children:
  - {fileID: 485064}
  m_Father: {fileID: 485168}
  m_RootOrder: 0
--- !u!4 &485082
Transform:
  m_ObjectHideFlags: 1
  m_PrefabParentObject: {fileID: 0}
  m_PrefabInternal: {fileID: 100100000}
  m_GameObject: {fileID: 185082}
  m_LocalRotation: {x: -0.00064958556, y: 0.034368698, z: 0.035659723, w: 0.9987726}
  m_LocalPosition: {x: -0.02803537, y: 0, z: -1.7763568e-17}
  m_LocalScale: {x: 1, y: 1, z: 1}
  m_Children:
  - {fileID: 485046}
  m_Father: {fileID: 485052}
  m_RootOrder: 0
--- !u!4 &485084
Transform:
  m_ObjectHideFlags: 1
  m_PrefabParentObject: {fileID: 0}
  m_PrefabInternal: {fileID: 100100000}
  m_GameObject: {fileID: 185084}
  m_LocalRotation: {x: 0.0008132306, y: 0.06737894, z: 0.9977145, w: -0.005020587}
  m_LocalPosition: {x: 0.062365316, y: 0.006322635, z: 0.082815684}
  m_LocalScale: {x: 1, y: 1, z: 1}
  m_Children:
  - {fileID: 485166}
  m_Father: {fileID: 485086}
  m_RootOrder: 1
--- !u!4 &485086
Transform:
  m_ObjectHideFlags: 1
  m_PrefabParentObject: {fileID: 0}
  m_PrefabInternal: {fileID: 100100000}
  m_GameObject: {fileID: 185086}
  m_LocalRotation: {x: -0.4816657, y: 0.4681493, z: -0.5312494, w: 0.51634145}
  m_LocalPosition: {x: -0.0010136749, y: 1.0417384, z: -0.0031359377}
  m_LocalScale: {x: 1, y: 1, z: 1}
  m_Children:
  - {fileID: 485104}
  - {fileID: 485084}
  - {fileID: 485042}
  m_Father: {fileID: 485096}
  m_RootOrder: 1
--- !u!4 &485088
Transform:
  m_ObjectHideFlags: 1
  m_PrefabParentObject: {fileID: 0}
  m_PrefabInternal: {fileID: 100100000}
  m_GameObject: {fileID: 185088}
  m_LocalRotation: {x: 0, y: -0, z: -0, w: 1}
  m_LocalPosition: {x: -0.028103577, y: 0, z: 2.6645352e-17}
  m_LocalScale: {x: 1, y: 1, z: 1}
  m_Children: []
  m_Father: {fileID: 485146}
  m_RootOrder: 0
--- !u!4 &485090
Transform:
  m_ObjectHideFlags: 1
  m_PrefabParentObject: {fileID: 0}
  m_PrefabInternal: {fileID: 100100000}
  m_GameObject: {fileID: 185090}
  m_LocalRotation: {x: 0.015952189, y: 0.023436034, z: 0.021490162, w: 0.99936706}
  m_LocalPosition: {x: -0.027660808, y: -2.842171e-16, z: 0}
  m_LocalScale: {x: 1, y: 1, z: 1}
  m_Children:
  - {fileID: 485154}
  m_Father: {fileID: 485162}
  m_RootOrder: 0
--- !u!4 &485092
Transform:
  m_ObjectHideFlags: 1
  m_PrefabParentObject: {fileID: 0}
  m_PrefabInternal: {fileID: 100100000}
  m_GameObject: {fileID: 185092}
  m_LocalRotation: {x: -0.000000006396359, y: 0.0000000025721156, z: -0.022592071,
    w: 0.9997448}
  m_LocalPosition: {x: -0.10065695, y: 3.5527136e-17, z: 8.6736174e-19}
  m_LocalScale: {x: 1, y: 1, z: 1}
  m_Children:
  - {fileID: 485114}
  m_Father: {fileID: 485060}
  m_RootOrder: 0
--- !u!4 &485094
Transform:
  m_ObjectHideFlags: 1
  m_PrefabParentObject: {fileID: 0}
  m_PrefabInternal: {fileID: 100100000}
  m_GameObject: {fileID: 185094}
  m_LocalRotation: {x: -0.00024371338, y: -0.004544531, z: 0.01684163, w: 0.9998478}
  m_LocalPosition: {x: -0.02964846, y: 2.842171e-16, z: 0}
  m_LocalScale: {x: 1, y: 1, z: 1}
  m_Children:
  - {fileID: 485062}
  m_Father: {fileID: 485128}
  m_RootOrder: 0
--- !u!4 &485096
Transform:
  m_ObjectHideFlags: 1
  m_PrefabParentObject: {fileID: 0}
  m_PrefabInternal: {fileID: 100100000}
  m_GameObject: {fileID: 185096}
  m_LocalRotation: {x: 0, y: 0, z: 0, w: 1}
  m_LocalPosition: {x: -19, y: 0, z: -35}
  m_LocalScale: {x: 1, y: 1, z: 1}
  m_Children:
  - {fileID: 485156}
  - {fileID: 485086}
  m_Father: {fileID: 0}
  m_RootOrder: 0
--- !u!4 &485098
Transform:
  m_ObjectHideFlags: 1
  m_PrefabParentObject: {fileID: 0}
  m_PrefabInternal: {fileID: 100100000}
  m_GameObject: {fileID: 185098}
  m_LocalRotation: {x: -0.7044508, y: -0.28269282, z: -0.22688305, w: 0.6102115}
  m_LocalPosition: {x: -0.03646904, y: -0.008491736, z: -0.027794085}
  m_LocalScale: {x: 1, y: 1, z: 1}
  m_Children:
  - {fileID: 485162}
  m_Father: {fileID: 485138}
  m_RootOrder: 4
--- !u!4 &485100
Transform:
  m_ObjectHideFlags: 1
  m_PrefabParentObject: {fileID: 0}
  m_PrefabInternal: {fileID: 100100000}
  m_GameObject: {fileID: 185100}
  m_LocalRotation: {x: -0.6881476, y: 0.13432896, z: 0.15507272, w: 0.6959605}
  m_LocalPosition: {x: -0.03724177, y: -1.4210854e-16, z: -5.684342e-16}
  m_LocalScale: {x: 1, y: 1, z: 1}
  m_Children:
  - {fileID: 485040}
  m_Father: {fileID: 485126}
  m_RootOrder: 0
--- !u!4 &485102
Transform:
  m_ObjectHideFlags: 1
  m_PrefabParentObject: {fileID: 0}
  m_PrefabInternal: {fileID: 100100000}
  m_GameObject: {fileID: 185102}
  m_LocalRotation: {x: 0.0000071908266, y: -0.009162582, z: 0.071519524, w: 0.9973971}
  m_LocalPosition: {x: -0.027187204, y: 0, z: 1.2767564e-17}
  m_LocalScale: {x: 1, y: 1, z: 1}
  m_Children:
  - {fileID: 485158}
  m_Father: {fileID: 485140}
  m_RootOrder: 0
--- !u!4 &485104
Transform:
  m_ObjectHideFlags: 1
  m_PrefabParentObject: {fileID: 0}
  m_PrefabInternal: {fileID: 100100000}
  m_GameObject: {fileID: 185104}
  m_LocalRotation: {x: -0.0029406652, y: 0.03037003, z: 0.9995206, w: -0.0052549285}
  m_LocalPosition: {x: 0.0628202, y: -0.009657169, z: -0.08007939}
  m_LocalScale: {x: 1, y: 1, z: 1}
  m_Children:
  - {fileID: 485068}
  m_Father: {fileID: 485086}
  m_RootOrder: 0
--- !u!4 &485106
Transform:
  m_ObjectHideFlags: 1
  m_PrefabParentObject: {fileID: 0}
  m_PrefabInternal: {fileID: 100100000}
  m_GameObject: {fileID: 185106}
  m_LocalRotation: {x: 0.028726779, y: -0.017283142, z: -0.0383469, w: 0.998702}
  m_LocalPosition: {x: -0.10945778, y: 0.0060047675, z: 0.011718265}
  m_LocalScale: {x: 1, y: 1, z: 1}
  m_Children:
  - {fileID: 485118}
  m_Father: {fileID: 485138}
  m_RootOrder: 3
--- !u!4 &485108
Transform:
  m_ObjectHideFlags: 1
  m_PrefabParentObject: {fileID: 0}
  m_PrefabInternal: {fileID: 100100000}
  m_GameObject: {fileID: 185108}
  m_LocalRotation: {x: 0.0042143688, y: -0.0009090935, z: -0.47467119, w: 0.8801527}
  m_LocalPosition: {x: -0.46714023, y: -7.549516e-16, z: 8.8817837e-17}
  m_LocalScale: {x: 1, y: 1, z: 1}
  m_Children:
  - {fileID: 485074}
  m_Father: {fileID: 485166}
  m_RootOrder: 0
--- !u!4 &485110
Transform:
  m_ObjectHideFlags: 1
  m_PrefabParentObject: {fileID: 0}
  m_PrefabInternal: {fileID: 100100000}
  m_GameObject: {fileID: 185110}
  m_LocalRotation: {x: 0, y: -0, z: -0, w: 1}
  m_LocalPosition: {x: -0.099083625, y: 1.3322676e-16, z: -2.0497676e-10}
  m_LocalScale: {x: 1, y: 1, z: 1}
  m_Children:
  - {fileID: 485112}
  m_Father: {fileID: 485042}
  m_RootOrder: 0
--- !u!4 &485112
Transform:
  m_ObjectHideFlags: 1
  m_PrefabParentObject: {fileID: 0}
  m_PrefabInternal: {fileID: 100100000}
  m_GameObject: {fileID: 185112}
  m_LocalRotation: {x: -0.020232163, y: -0.00084299274, z: -0.009909936, w: 0.99974585}
  m_LocalPosition: {x: -0.11323839, y: 7.687768e-11, z: -2.3642902e-10}
  m_LocalScale: {x: 1, y: 1, z: 1}
  m_Children:
  - {fileID: 485066}
  - {fileID: 485060}
  - {fileID: 485142}
  m_Father: {fileID: 485110}
  m_RootOrder: 0
--- !u!4 &485114
Transform:
  m_ObjectHideFlags: 1
  m_PrefabParentObject: {fileID: 0}
  m_PrefabInternal: {fileID: 100100000}
  m_GameObject: {fileID: 185114}
  m_LocalRotation: {x: 0, y: -0, z: -0, w: 1}
  m_LocalPosition: {x: -0.1803156, y: 1.4210854e-16, z: -2.558556e-10}
  m_LocalScale: {x: 1, y: 1, z: 1}
  m_Children: []
  m_Father: {fileID: 485092}
  m_RootOrder: 0
--- !u!4 &485116
Transform:
  m_ObjectHideFlags: 1
  m_PrefabParentObject: {fileID: 0}
  m_PrefabInternal: {fileID: 100100000}
  m_GameObject: {fileID: 185116}
  m_LocalRotation: {x: -0.0000912563, y: -0.0047686268, z: 0.016477143, w: 0.9998529}
  m_LocalPosition: {x: -0.021254849, y: 2.842171e-16, z: -1.7763568e-17}
  m_LocalScale: {x: 1, y: 1, z: 1}
  m_Children:
  - {fileID: 485058}
  m_Father: {fileID: 485130}
  m_RootOrder: 0
--- !u!4 &485118
Transform:
  m_ObjectHideFlags: 1
  m_PrefabParentObject: {fileID: 0}
  m_PrefabInternal: {fileID: 100100000}
  m_GameObject: {fileID: 185118}
  m_LocalRotation: {x: -0.0000071969203, y: 0.009162801, z: 0.071519524, w: 0.9973971}
  m_LocalPosition: {x: -0.027187204, y: -2.842171e-16, z: -4.6074255e-17}
  m_LocalScale: {x: 1, y: 1, z: 1}
  m_Children:
  - {fileID: 485054}
  m_Father: {fileID: 485106}
  m_RootOrder: 0
--- !u!4 &485120
Transform:
  m_ObjectHideFlags: 1
  m_PrefabParentObject: {fileID: 0}
  m_PrefabInternal: {fileID: 100100000}
  m_GameObject: {fileID: 185120}
  m_LocalRotation: {x: 0.000023937913, y: 0.0000012076496, z: -0.04891609, w: 0.9988029}
  m_LocalPosition: {x: -0.2803106, y: -5.684342e-16, z: -1.02140514e-16}
  m_LocalScale: {x: 1, y: 1, z: 1}
  m_Children:
  - {fileID: 485138}
  m_Father: {fileID: 485160}
  m_RootOrder: 0
--- !u!4 &485122
Transform:
  m_ObjectHideFlags: 1
  m_PrefabParentObject: {fileID: 0}
  m_PrefabInternal: {fileID: 100100000}
  m_GameObject: {fileID: 185122}
  m_LocalRotation: {x: 0, y: -0, z: -0, w: 1}
  m_LocalPosition: {x: -0.025443517, y: 2.842171e-16, z: 8.881784e-18}
  m_LocalScale: {x: 1, y: 1, z: 1}
  m_Children: []
  m_Father: {fileID: 485132}
  m_RootOrder: 0
--- !u!4 &485124
Transform:
  m_ObjectHideFlags: 1
  m_PrefabParentObject: {fileID: 0}
  m_PrefabInternal: {fileID: 100100000}
  m_GameObject: {fileID: 185124}
  m_LocalRotation: {x: 0, y: -0, z: -0, w: 1}
  m_LocalPosition: {x: -0.025120968, y: 0, z: 1.4210854e-16}
  m_LocalScale: {x: 1, y: 1, z: 1}
  m_Children: []
  m_Father: {fileID: 485040}
  m_RootOrder: 0
--- !u!4 &485126
Transform:
  m_ObjectHideFlags: 1
  m_PrefabParentObject: {fileID: 0}
  m_PrefabInternal: {fileID: 100100000}
  m_GameObject: {fileID: 185126}
  m_LocalRotation: {x: 0.70444864, y: 0.2826927, z: -0.22688302, w: 0.61021394}
  m_LocalPosition: {x: -0.03646904, y: -0.008491635, z: 0.027794117}
  m_LocalScale: {x: 1, y: 1, z: 1}
  m_Children:
  - {fileID: 485100}
  m_Father: {fileID: 485172}
  m_RootOrder: 4
--- !u!4 &485128
Transform:
  m_ObjectHideFlags: 1
  m_PrefabParentObject: {fileID: 0}
  m_PrefabInternal: {fileID: 100100000}
  m_GameObject: {fileID: 185128}
  m_LocalRotation: {x: 0.000071278875, y: 0.0066240085, z: 0.020466315, w: 0.9997686}
  m_LocalPosition: {x: -0.029487152, y: 0, z: 5.3290704e-17}
  m_LocalScale: {x: 1, y: 1, z: 1}
  m_Children:
  - {fileID: 485094}
  m_Father: {fileID: 485164}
  m_RootOrder: 0
--- !u!4 &485130
Transform:
  m_ObjectHideFlags: 1
  m_PrefabParentObject: {fileID: 0}
  m_PrefabInternal: {fileID: 100100000}
  m_GameObject: {fileID: 185130}
  m_LocalRotation: {x: 0.00028778773, y: -0.030665316, z: 0.011495906, w: 0.99946356}
  m_LocalPosition: {x: -0.023957739, y: 2.842171e-16, z: 4.440892e-18}
  m_LocalScale: {x: 1, y: 1, z: 1}
  m_Children:
  - {fileID: 485116}
  m_Father: {fileID: 485152}
  m_RootOrder: 0
--- !u!4 &485132
Transform:
  m_ObjectHideFlags: 1
  m_PrefabParentObject: {fileID: 0}
  m_PrefabInternal: {fileID: 100100000}
  m_GameObject: {fileID: 185132}
  m_LocalRotation: {x: -0.00017699527, y: -0.0036338589, z: 0.022071619, w: 0.9997498}
  m_LocalPosition: {x: -0.02766384, y: -5.684342e-16, z: -3.5527136e-17}
  m_LocalScale: {x: 1, y: 1, z: 1}
  m_Children:
  - {fileID: 485122}
  m_Father: {fileID: 485170}
  m_RootOrder: 0
--- !u!4 &485134
Transform:
  m_ObjectHideFlags: 1
  m_PrefabParentObject: {fileID: 0}
  m_PrefabInternal: {fileID: 100100000}
  m_GameObject: {fileID: 185134}
  m_LocalRotation: {x: 0, y: -0, z: -0, w: 1}
  m_LocalPosition: {x: -0.02391584, y: 2.842171e-16, z: 3.5527136e-17}
  m_LocalScale: {x: 1, y: 1, z: 1}
  m_Children: []
  m_Father: {fileID: 485054}
  m_RootOrder: 0
--- !u!4 &485136
Transform:
  m_ObjectHideFlags: 1
  m_PrefabParentObject: {fileID: 0}
  m_PrefabInternal: {fileID: 100100000}
  m_GameObject: {fileID: 185136}
  m_LocalRotation: {x: -0.000022134518, y: -0.0000012886796, z: -0.048916098, w: 0.9988029}
  m_LocalPosition: {x: -0.2803106, y: -5.684342e-16, z: 8.8817837e-17}
  m_LocalScale: {x: 1, y: 1, z: 1}
  m_Children:
  - {fileID: 485172}
  m_Father: {fileID: 485050}
  m_RootOrder: 0
--- !u!4 &485138
Transform:
  m_ObjectHideFlags: 1
  m_PrefabParentObject: {fileID: 0}
  m_PrefabInternal: {fileID: 100100000}
  m_GameObject: {fileID: 185138}
  m_LocalRotation: {x: 4.208614e-12, y: 2.2078696e-14, z: 4.6565704e-10, w: 1}
  m_LocalPosition: {x: -0.27268064, y: 2.842171e-16, z: 2.2204459e-17}
  m_LocalScale: {x: 1, y: 1, z: 1}
  m_Children:
  - {fileID: 485052}
  - {fileID: 485044}
  - {fileID: 485152}
  - {fileID: 485106}
  - {fileID: 485098}
  m_Father: {fileID: 485120}
  m_RootOrder: 0
--- !u!4 &485140
Transform:
  m_ObjectHideFlags: 1
  m_PrefabParentObject: {fileID: 0}
  m_PrefabInternal: {fileID: 100100000}
  m_GameObject: {fileID: 185140}
  m_LocalRotation: {x: -0.028727064, y: 0.017283011, z: -0.038346957, w: 0.998702}
  m_LocalPosition: {x: -0.10945778, y: 0.006004725, z: -0.011718286}
  m_LocalScale: {x: 1, y: 1, z: 1}
  m_Children:
  - {fileID: 485102}
  m_Father: {fileID: 485172}
  m_RootOrder: 3
--- !u!4 &485142
Transform:
  m_ObjectHideFlags: 1
  m_PrefabParentObject: {fileID: 0}
  m_PrefabInternal: {fileID: 100100000}
  m_GameObject: {fileID: 185142}
  m_LocalRotation: {x: -0.5075589, y: 0.52061397, z: 0.5156302, w: 0.45328867}
  m_LocalPosition: {x: -0.09206519, y: 0.002802562, z: 0.061219003}
  m_LocalScale: {x: 1, y: 1, z: 1}
  m_Children:
  - {fileID: 485160}
  m_Father: {fileID: 485112}
  m_RootOrder: 2
--- !u!4 &485144
Transform:
  m_ObjectHideFlags: 1
  m_PrefabParentObject: {fileID: 0}
  m_PrefabInternal: {fileID: 100100000}
  m_GameObject: {fileID: 185144}
  m_LocalRotation: {x: -0.00028778586, y: 0.030665386, z: 0.011495718, w: 0.99946356}
  m_LocalPosition: {x: -0.023957739, y: 2.842171e-16, z: -1.3322676e-17}
  m_LocalScale: {x: 1, y: 1, z: 1}
  m_Children:
  - {fileID: 485070}
  m_Father: {fileID: 485150}
  m_RootOrder: 0
--- !u!4 &485146
Transform:
  m_ObjectHideFlags: 1
  m_PrefabParentObject: {fileID: 0}
  m_PrefabInternal: {fileID: 100100000}
  m_GameObject: {fileID: 185146}
  m_LocalRotation: {x: 0.00024371513, y: 0.0045446507, z: 0.016841609, w: 0.9998478}
  m_LocalPosition: {x: -0.02964846, y: -2.842171e-16, z: 0}
  m_LocalScale: {x: 1, y: 1, z: 1}
  m_Children:
  - {fileID: 485088}
  m_Father: {fileID: 485148}
  m_RootOrder: 0
--- !u!4 &485148
Transform:
  m_ObjectHideFlags: 1
  m_PrefabParentObject: {fileID: 0}
  m_PrefabInternal: {fileID: 100100000}
  m_GameObject: {fileID: 185148}
  m_LocalRotation: {x: -0.00007128067, y: -0.006623856, z: 0.020466356, w: 0.9997686}
  m_LocalPosition: {x: -0.029487152, y: 0, z: -1.5099033e-16}
  m_LocalScale: {x: 1, y: 1, z: 1}
  m_Children:
  - {fileID: 485146}
  m_Father: {fileID: 485044}
  m_RootOrder: 0
--- !u!4 &485150
Transform:
  m_ObjectHideFlags: 1
  m_PrefabParentObject: {fileID: 0}
  m_PrefabInternal: {fileID: 100100000}
  m_GameObject: {fileID: 185150}
  m_LocalRotation: {x: -0.009035791, y: -0.002431605, z: -0.012293664, w: 0.9998807}
  m_LocalPosition: {x: -0.10630969, y: 0.0031849649, z: -0.03350989}
  m_LocalScale: {x: 1, y: 1, z: 1}
  m_Children:
  - {fileID: 485144}
  m_Father: {fileID: 485172}
  m_RootOrder: 2
--- !u!4 &485152
Transform:
  m_ObjectHideFlags: 1
  m_PrefabParentObject: {fileID: 0}
  m_PrefabInternal: {fileID: 100100000}
  m_GameObject: {fileID: 185152}
  m_LocalRotation: {x: 0.009037095, y: 0.0024315456, z: -0.012293678, w: 0.9998807}
  m_LocalPosition: {x: -0.10630969, y: 0.003185086, z: 0.033509884}
  m_LocalScale: {x: 1, y: 1, z: 1}
  m_Children:
  - {fileID: 485130}
  m_Father: {fileID: 485138}
  m_RootOrder: 2
--- !u!4 &485154
Transform:
  m_ObjectHideFlags: 1
  m_PrefabParentObject: {fileID: 0}
  m_PrefabInternal: {fileID: 100100000}
  m_GameObject: {fileID: 185154}
  m_LocalRotation: {x: 0, y: -0, z: -0, w: 1}
  m_LocalPosition: {x: -0.025120968, y: -2.842171e-16, z: 0}
  m_LocalScale: {x: 1, y: 1, z: 1}
  m_Children: []
  m_Father: {fileID: 485090}
  m_RootOrder: 0
--- !u!4 &485156
Transform:
  m_ObjectHideFlags: 1
  m_PrefabParentObject: {fileID: 0}
  m_PrefabInternal: {fileID: 100100000}
  m_GameObject: {fileID: 185156}
  m_LocalRotation: {x: 0, y: -0, z: 0, w: 1}
  m_LocalPosition: {x: 0, y: 0, z: 0}
  m_LocalScale: {x: 1, y: 1, z: 1}
  m_Children: []
  m_Father: {fileID: 485096}
  m_RootOrder: 0
--- !u!4 &485158
Transform:
  m_ObjectHideFlags: 1
  m_PrefabParentObject: {fileID: 0}
  m_PrefabInternal: {fileID: 100100000}
  m_GameObject: {fileID: 185158}
  m_LocalRotation: {x: 0.000066837, y: -0.00041876413, z: 0.020416033, w: 0.9997915}
  m_LocalPosition: {x: -0.023403198, y: -2.842171e-16, z: -4.440892e-18}
  m_LocalScale: {x: 1, y: 1, z: 1}
  m_Children:
  - {fileID: 485078}
  m_Father: {fileID: 485102}
  m_RootOrder: 0
--- !u!4 &485160
Transform:
  m_ObjectHideFlags: 1
  m_PrefabParentObject: {fileID: 0}
  m_PrefabInternal: {fileID: 100100000}
  m_GameObject: {fileID: 185160}
  m_LocalRotation: {x: -0.0004239805, y: -0.00472199, z: 0.012598521, w: 0.9999094}
  m_LocalPosition: {x: -0.12384196, y: -2.842171e-16, z: 3.1530333e-15}
  m_LocalScale: {x: 1, y: 1, z: 1}
  m_Children:
  - {fileID: 485120}
  m_Father: {fileID: 485142}
  m_RootOrder: 0
--- !u!4 &485162
Transform:
  m_ObjectHideFlags: 1
  m_PrefabParentObject: {fileID: 0}
  m_PrefabInternal: {fileID: 100100000}
  m_GameObject: {fileID: 185162}
  m_LocalRotation: {x: 0.6881498, y: -0.13432896, z: 0.15507266, w: 0.6959584}
  m_LocalPosition: {x: -0.03724177, y: 1.4210854e-16, z: 0}
  m_LocalScale: {x: 1, y: 1, z: 1}
  m_Children:
  - {fileID: 485090}
  m_Father: {fileID: 485098}
  m_RootOrder: 0
--- !u!4 &485164
Transform:
  m_ObjectHideFlags: 1
  m_PrefabParentObject: {fileID: 0}
  m_PrefabInternal: {fileID: 100100000}
  m_GameObject: {fileID: 185164}
  m_LocalRotation: {x: 0.012576206, y: 0.007294782, z: -0.006708305, w: 0.99987185}
  m_LocalPosition: {x: -0.10926422, y: 0.0051515196, z: 0.012594561}
  m_LocalScale: {x: 1, y: 1, z: 1}
  m_Children:
  - {fileID: 485128}
  m_Father: {fileID: 485172}
  m_RootOrder: 1
--- !u!4 &485166
Transform:
  m_ObjectHideFlags: 1
  m_PrefabParentObject: {fileID: 0}
  m_PrefabInternal: {fileID: 100100000}
  m_GameObject: {fileID: 185166}
  m_LocalRotation: {x: -0.0063019753, y: 0.0051147137, z: 0.046050355, w: 0.99890614}
  m_LocalPosition: {x: -0.40885338, y: -7.5495166e-17, z: -8.8817837e-17}
  m_LocalScale: {x: 1, y: 1, z: 1}
  m_Children:
  - {fileID: 485108}
  m_Father: {fileID: 485084}
  m_RootOrder: 0
--- !u!4 &485168
Transform:
  m_ObjectHideFlags: 1
  m_PrefabParentObject: {fileID: 0}
  m_PrefabInternal: {fileID: 100100000}
  m_GameObject: {fileID: 185168}
  m_LocalRotation: {x: -0.004284285, y: 0.0010438107, z: -0.47466576, w: 0.8801551}
  m_LocalPosition: {x: -0.46714023, y: -6.3948843e-16, z: -1.0658141e-16}
  m_LocalScale: {x: 1, y: 1, z: 1}
  m_Children:
  - {fileID: 485080}
  m_Father: {fileID: 485068}
  m_RootOrder: 0
--- !u!4 &485170
Transform:
  m_ObjectHideFlags: 1
  m_PrefabParentObject: {fileID: 0}
  m_PrefabInternal: {fileID: 100100000}
  m_GameObject: {fileID: 185170}
  m_LocalRotation: {x: 0.0006495906, y: -0.034368955, z: 0.035659473, w: 0.9987726}
  m_LocalPosition: {x: -0.02803537, y: 0, z: 1.7763568e-17}
  m_LocalScale: {x: 1, y: 1, z: 1}
  m_Children:
  - {fileID: 485132}
  m_Father: {fileID: 485056}
  m_RootOrder: 0
--- !u!4 &485172
Transform:
  m_ObjectHideFlags: 1
  m_PrefabParentObject: {fileID: 0}
  m_PrefabInternal: {fileID: 100100000}
  m_GameObject: {fileID: 185172}
  m_LocalRotation: {x: -5.483174e-12, y: -0.0000000011275268, z: -4.419635e-11, w: 1}
  m_LocalPosition: {x: -0.27268064, y: 0, z: 1.3322676e-17}
  m_LocalScale: {x: 1, y: 1, z: 1}
  m_Children:
  - {fileID: 485056}
  - {fileID: 485164}
  - {fileID: 485150}
  - {fileID: 485140}
  - {fileID: 485126}
  m_Father: {fileID: 485136}
  m_RootOrder: 0
--- !u!54 &5485172
Rigidbody:
  m_ObjectHideFlags: 1
  m_PrefabParentObject: {fileID: 0}
  m_PrefabInternal: {fileID: 100100000}
  m_GameObject: {fileID: 185096}
  serializedVersion: 2
  m_Mass: 1
  m_Drag: 0
  m_AngularDrag: 0.05
  m_UseGravity: 1
  m_IsKinematic: 0
  m_Interpolate: 0
  m_Constraints: 112
  m_CollisionDetection: 2
--- !u!95 &9585172
Animator:
  serializedVersion: 3
  m_ObjectHideFlags: 1
  m_PrefabParentObject: {fileID: 0}
  m_PrefabInternal: {fileID: 100100000}
  m_GameObject: {fileID: 185096}
  m_Enabled: 1
  m_Avatar: {fileID: 9000000, guid: 376876c9c340bfd4481404de7b821910, type: 3}
  m_Controller: {fileID: 9100000, guid: 1ac2a1891f6a2814dbcb83cbd24d5ee1, type: 2}
  m_CullingMode: 1
  m_UpdateMode: 0
  m_ApplyRootMotion: 1
  m_LinearVelocityBlending: 0
  m_WarningMessage: 
  m_HasTransformHierarchy: 1
  m_AllowConstantClipSamplingOptimization: 1
--- !u!114 &11441396
MonoBehaviour:
  m_ObjectHideFlags: 1
  m_PrefabParentObject: {fileID: 0}
  m_PrefabInternal: {fileID: 100100000}
  m_GameObject: {fileID: 185096}
  m_Enabled: 1
  m_EditorHideFlags: 0
  m_Script: {fileID: 11500000, guid: e34c7c5a8e1326240a1d327613f4b1ad, type: 3}
  m_Name: 
  m_EditorClassIdentifier: 
  walkSpeed: 0.15
  runSpeed: 1
  sprintSpeed: 2
  flySpeed: 4
  turnSmoothing: 3
  aimTurnSmoothing: 15
  speedDampTime: 0.1
  jumpHeight: 5
  jumpCooldown: 1
--- !u!136 &13685172
CapsuleCollider:
  m_ObjectHideFlags: 1
  m_PrefabParentObject: {fileID: 0}
  m_PrefabInternal: {fileID: 100100000}
  m_GameObject: {fileID: 185096}
  m_Material: {fileID: 13400000, guid: 7a665289b8701a143a4d81cc38730390, type: 2}
  m_IsTrigger: 0
  m_Enabled: 1
  m_Radius: 0.5
  m_Height: 1.8
  m_Direction: 1
  m_Center: {x: 0, y: 0.87, z: 0}
--- !u!137 &13785172
SkinnedMeshRenderer:
  m_ObjectHideFlags: 1
  m_PrefabParentObject: {fileID: 0}
  m_PrefabInternal: {fileID: 100100000}
  m_GameObject: {fileID: 185156}
  m_Enabled: 1
  m_CastShadows: 1
  m_ReceiveShadows: 1
  m_Materials:
  - {fileID: 2100000, guid: d4b9a00252f83864d8a5ea8767ad6894, type: 2}
  m_SubsetIndices: 
  m_StaticBatchRoot: {fileID: 0}
  m_UseLightProbes: 0
  m_ReflectionProbeUsage: 1
  m_ProbeAnchor: {fileID: 0}
  m_ScaleInLightmap: 1
  m_PreserveUVs: 0
  m_IgnoreNormalsForChartDetection: 0
  m_ImportantGI: 0
  m_MinimumChartSize: 4
  m_AutoUVMaxDistance: 0.5
  m_AutoUVMaxAngle: 89
  m_LightmapParameters: {fileID: 0}
  m_SortingLayerID: 0
  m_SortingOrder: 0
  serializedVersion: 2
  m_Quality: 0
  m_UpdateWhenOffscreen: 0
  m_Mesh: {fileID: 4300000, guid: 376876c9c340bfd4481404de7b821910, type: 3}
  m_Bones:
  - {fileID: 485086}
  - {fileID: 485042}
  - {fileID: 485110}
  - {fileID: 485112}
  - {fileID: 485060}
  - {fileID: 485092}
  - {fileID: 485114}
  - {fileID: 485066}
  - {fileID: 485050}
  - {fileID: 485136}
  - {fileID: 485172}
  - {fileID: 485126}
  - {fileID: 485100}
  - {fileID: 485040}
  - {fileID: 485124}
  - {fileID: 485056}
  - {fileID: 485170}
  - {fileID: 485132}
  - {fileID: 485122}
  - {fileID: 485164}
  - {fileID: 485128}
  - {fileID: 485094}
  - {fileID: 485062}
  - {fileID: 485140}
  - {fileID: 485102}
  - {fileID: 485158}
  - {fileID: 485078}
  - {fileID: 485150}
  - {fileID: 485144}
  - {fileID: 485070}
  - {fileID: 485076}
  - {fileID: 485142}
  - {fileID: 485160}
  - {fileID: 485120}
  - {fileID: 485138}
  - {fileID: 485098}
  - {fileID: 485162}
  - {fileID: 485090}
  - {fileID: 485154}
  - {fileID: 485052}
  - {fileID: 485082}
  - {fileID: 485046}
  - {fileID: 485048}
  - {fileID: 485044}
  - {fileID: 485148}
  - {fileID: 485146}
  - {fileID: 485088}
  - {fileID: 485106}
  - {fileID: 485118}
  - {fileID: 485054}
  - {fileID: 485134}
  - {fileID: 485152}
  - {fileID: 485130}
  - {fileID: 485116}
  - {fileID: 485058}
  - {fileID: 485104}
  - {fileID: 485068}
  - {fileID: 485168}
  - {fileID: 485080}
  - {fileID: 485064}
  - {fileID: 485084}
  - {fileID: 485166}
  - {fileID: 485108}
  - {fileID: 485074}
  - {fileID: 485072}
  m_BlendShapeWeights: []
  m_RootBone: {fileID: 485086}
  m_AABB:
    m_Center: {x: 0.19758174, y: -0.0048109293, z: 0.0016007125}
    m_Extent: {x: 0.9289458, y: 0.16931653, z: 0.93016946}
  m_DirtyAABB: 0
--- !u!1001 &100100000
Prefab:
  m_ObjectHideFlags: 1
  serializedVersion: 2
  m_Modification:
    m_TransformParent: {fileID: 0}
    m_Modifications: []
    m_RemovedComponents: []
  m_ParentPrefab: {fileID: 0}
  m_RootGameObject: {fileID: 185096}
  m_IsPrefabParent: 1
